Flights.utf8.md
…
No destination is missing and all the destinations have valid codes. However, it is surprising to find that there were no flights from NYC to Spokane in 2013. When I checked today, I found 500+ results from New York to Spokane.

Question - Worst 3 destinations in terms of delays

#Flights delay by destinations.  
flights_delay <- flights %>%
  filter(arr_delay > 0) %>% 
  group_by(dest) %>%
  summarize(mean_delay=mean(arr_delay, na.rm = T)) %>%
  arrange(desc(mean_delay))

flights_delay

## # A tibble: 103 x 2
##    dest  mean_delay
##    <chr>      <dbl>
##  1 TVC         66.7
##  2 TUL         60.4
##  3 BHM         60.1
##  4 TYS         59.9
##  5 DSM         57.0
##  6 OKC         56.6
##  7 CAE         53.6
##  8 RIC         53.3
##  9 MSN         52.8
## 10 CVG         52.4
## # ... with 93 more rows
…
